{
  "parent": "modularmultitool:item/item_module_base",
  "textures": {
    "layer0": "modularmultitool:item/item_module_upgrade_fortune_level0"
  },
  "overrides": [
    {
      "predicate": {
        "modularmultitool:mmt_level": 0.2
      },
      "model": "modularmultitool:item/item_module_upgrade_fortune_level1"
    },
    {
      "predicate": {
        "modularmultitool:mmt_level": 0.4
      },
      "model": "modularmultitool:item/item_module_upgrade_fortune_level2"
    }
  ]
}