{
  "parent": "modularmultitool:item/item_module_base",
  "textures": {
    "layer0": "modularmultitool:item/item_module_tool_axe_level0"
  },
  "overrides": [
    {
      "predicate": {
        "modularmultitool:mmt_level": 0.2
      },
      "model": "modularmultitool:item/item_module_tool_axe_level1"
    },
    {
      "predicate": {
        "modularmultitool:mmt_level": 0.4
      },
      "model": "modularmultitool:item/item_module_tool_axe_level2"
    },
    {
      "predicate": {
        "modularmultitool:mmt_level": 0.6
      },
      "model": "modularmultitool:item/item_module_tool_axe_level3"
    },
    {
      "predicate": {
        "modularmultitool:mmt_level": 0.8
      },
      "model": "modularmultitool:item/item_module_tool_axe_level4"
    },
    {
      "predicate": {
        "modularmultitool:mmt_level": 1.0
      },
      "model": "modularmultitool:item/item_module_tool_axe_level5"
    }
  ]
}