{
  "type": "modularmultitool:crafting_shaped_with_nbt",
  "pattern": [
    "UUU",
    "UMU",
    "UUU"
  ],
  "key": {
    "M": {
      "item": "modularmultitool:item_module_upgrade_miningpower",
      "nbt": "{mmt_level:3}"
    },
    "U": {
      "item": "minecraft:diamond"
    }
  },
  "result": {
    "item": "modularmultitool:item_module_upgrade_miningpower",
    "nbt": "{Damage:0,mmt_level:4}"
  }
}