{
  "type": "modularmultitool:crafting_shaped_with_nbt",
  "pattern": [
    "UUU",
    "UMU",
    "UUU"
  ],
  "key": {
    "M": {
      "item": "modularmultitool:item_module_tool_sword",
      "nbt": "{mmt_level:1}"
    },
    "U": {
      "item": "minecraft:iron_ingot"
    }
  },
  "result": {
    "item": "modularmultitool:item_module_tool_sword",
    "nbt": "{mmt_durability:256,mmt_level:2}"
  }
}