{
  "type": "modularmultitool:crafting_shaped_with_nbt",
  "pattern": [
    "ppp",
    "pTp",
    "ppp"
  ],
  "key": {
    "T": {
      "item": "minecraft:wooden_sword"
    },
    "p": {
      "item": "minecraft:oak_planks"
    }
  },
  "result": {
    "item": "modularmultitool:item_module_tool_sword"
  }
}