{
  "type": "modularmultitool:crafting_shaped_with_nbt",
  "pattern": [
    "pdp",
    "eTe",
    "pep"
  ],
  "key": {
    "T": {
      "item": "modularmultitool:item_module_battery",
      "nbt": "{mmt_level:0}"
    },
    "p": {
      "item": "minecraft:comparator"
    },
    "e": {
      "item": "minecraft:repeater"
    },
    "d": {
      "item": "minecraft:trident"
    }
  },
  "result": {
    "item": "modularmultitool:item_module_battery",
    "nbt": "{Damage:0,mmt_level:1}"
  }
}