{
  "type": "modularmultitool:crafting_shaped_with_nbt",
  "pattern": [
    "ppp",
    "pTp",
    "ppp"
  ],
  "key": {
    "T": {
      "item": "minecraft:book"
    },
    "p": {
      "item": "minecraft:feather"
    }
  },
  "result": {
    "item": "modularmultitool:item_module_upgrade_fortune"
  }
}