{
  "type": "modularmultitool:crafting_shaped_with_nbt",
  "pattern": [
    "UUU",
    "UMU",
    "UUU"
  ],
  "key": {
    "M": {
      "item": "modularmultitool:item_module_laser_mining",
      "nbt": "{mmt_level:4}"
    },
    "U": {
      "item": "minecraft:emerald"
    }
  },
  "result": {
    "item": "modularmultitool:item_module_laser_mining",
    "nbt": "{Damage:0,mmt_level:5}"
  }
}