{
  "type": "modularmultitool:crafting_shaped_with_nbt",
  "pattern": [
    "SpA",
    "pcp",
    "WpP"
  ],
  "key": {
    "p": {
      "item": "minecraft:oak_planks"
    },
    "c": {
      "item": "minecraft:chest"
    },
    "S": {
      "item": "minecraft:wooden_shovel"
    },
    "A": {
      "item": "minecraft:wooden_axe"
    },
    "W": {
      "item": "minecraft:wooden_sword"
    },
    "P": {
      "item": "minecraft:wooden_pickaxe"
    }
  },
  "result": {
    "item": "modularmultitool:item_multitool"
  }
}