{
  "type": "modularmultitool:crafting_shaped_with_nbt",
  "pattern": [
    "UUU",
    "UMU",
    "UUU"
  ],
  "key": {
    "M": {
      "item": "modularmultitool:item_module_tool_shovel",
      "nbt": "{mmt_level:0}"
    },
    "U": {
      "item": "minecraft:stone"
    }
  },
  "result": {
    "item": "modularmultitool:item_module_tool_shovel",
    "nbt": "{mmt_durability:128,mmt_level:1}"
  }
}