{
  "type": "modularmultitool:crafting_shaped_with_nbt",
  "pattern": [
    "pdp",
    "eTe",
    "pep"
  ],
  "key": {
    "T": {
      "item": "modularmultitool:item_module_battery",
      "nbt": "{mmt_level:3}"
    },
    "p": {
      "item": "minecraft:diamond"
    },
    "e": {
      "item": "minecraft:emerald"
    },
    "d": {
      "item": "minecraft:music_disc_mellohi"
    }
  },
  "result": {
    "item": "modularmultitool:item_module_battery",
    "nbt": "{Damage:0,mmt_level:4}"
  }
}